aid,class
blues.00000.au,rock
blues.00001.au,rock
blues.00002.au,country
blues.00003.au,hiphop
blues.00004.au,classical
blues.00005.au,jazz
blues.00006.au,country
blues.00007.au,classical
blues.00008.au,country
blues.00009.au,disco
blues.00010.au,rock
blues.00011.au,country
blues.00012.au,blues
blues.00013.au,blues
blues.00014.au,blues
blues.00015.au,blues
blues.00016.au,blues
blues.00017.au,blues
blues.00018.au,blues
blues.00019.au,blues
blues.00020.au,blues
blues.00021.au,blues
blues.00022.au,blues
blues.00023.au,blues
blues.00024.au,blues
blues.00025.au,blues
blues.00026.au,blues
blues.00027.au,jazz
blues.00028.au,jazz
blues.00029.au,classical
blues.00030.au,classical
blues.00031.au,classical
blues.00032.au,classical
blues.00033.au,classical
blues.00034.au,classical
blues.00035.au,classical
blues.00036.au,classical
blues.00037.au,classical
blues.00038.au,classical
blues.00039.au,classical
blues.00040.au,country
blues.00041.au,country
blues.00042.au,country
blues.00043.au,country
blues.00044.au,country
blues.00045.au,jazz
blues.00046.au,country
blues.00047.au,jazz
blues.00048.au,country
blues.00049.au,jazz
blues.00050.au,pop
blues.00051.au,metal
blues.00052.au,metal
blues.00053.au,pop
blues.00054.au,pop
blues.00055.au,pop
blues.00056.au,metal
blues.00057.au,metal
blues.00058.au,metal
blues.00059.au,pop
blues.00060.au,pop
blues.00061.au,country
blues.00062.au,classical
blues.00063.au,jazz
blues.00064.au,jazz
blues.00065.au,jazz
blues.00066.au,jazz
blues.00067.au,jazz
blues.00068.au,jazz
blues.00069.au,classical
blues.00070.au,jazz
blues.00071.au,jazz
blues.00072.au,jazz
blues.00073.au,pop
blues.00074.au,pop
blues.00075.au,pop
blues.00076.au,hiphop
blues.00077.au,disco
blues.00078.au,disco
blues.00079.au,hiphop
blues.00080.au,metal
blues.00081.au,metal
blues.00082.au,metal
blues.00083.au,hiphop
blues.00084.au,pop
blues.00085.au,disco
blues.00086.au,disco
blues.00087.au,metal
blues.00088.au,jazz
blues.00089.au,classical
classical.00000.au,classical
classical.00001.au,classical
classical.00002.au,jazz
classical.00003.au,classical
classical.00004.au,classical
classical.00005.au,classical
classical.00006.au,classical
classical.00007.au,classical
classical.00008.au,classical
classical.00009.au,classical
classical.00010.au,classical
classical.00011.au,classical
classical.00012.au,classical
classical.00013.au,classical
classical.00014.au,classical
classical.00015.au,country
classical.00016.au,classical
classical.00017.au,classical
classical.00018.au,classical
classical.00019.au,classical
classical.00020.au,classical
classical.00021.au,classical
classical.00022.au,classical
classical.00023.au,classical
classical.00024.au,classical
classical.00025.au,classical
classical.00026.au,classical
classical.00027.au,classical
classical.00028.au,classical
classical.00029.au,classical
classical.00030.au,classical
classical.00031.au,classical
classical.00032.au,classical
classical.00033.au,classical
classical.00034.au,classical
classical.00035.au,classical
classical.00036.au,classical
classical.00037.au,classical
classical.00038.au,classical
classical.00039.au,classical
classical.00040.au,classical
classical.00041.au,classical
classical.00042.au,classical
classical.00043.au,classical
classical.00044.au,classical
classical.00045.au,classical
classical.00046.au,jazz
classical.00047.au,classical
classical.00048.au,jazz
classical.00049.au,classical
classical.00050.au,classical
classical.00051.au,jazz
classical.00052.au,jazz
classical.00053.au,jazz
classical.00054.au,rock
classical.00055.au,classical
classical.00056.au,jazz
classical.00057.au,classical
classical.00058.au,classical
classical.00059.au,classical
classical.00060.au,classical
classical.00061.au,classical
classical.00062.au,classical
classical.00063.au,classical
classical.00064.au,classical
classical.00065.au,classical
classical.00066.au,classical
classical.00067.au,classical
classical.00068.au,classical
classical.00069.au,classical
classical.00070.au,classical
classical.00071.au,classical
classical.00072.au,classical
classical.00073.au,classical
classical.00074.au,classical
classical.00075.au,classical
classical.00076.au,classical
classical.00077.au,classical
classical.00078.au,classical
classical.00079.au,classical
classical.00080.au,classical
classical.00081.au,classical
classical.00082.au,classical
classical.00083.au,classical
classical.00084.au,classical
classical.00085.au,classical
classical.00086.au,classical
classical.00087.au,classical
classical.00088.au,classical
classical.00089.au,country
country.00000.au,hiphop
country.00001.au,reggae
country.00002.au,blues
country.00003.au,metal
country.00004.au,metal
country.00005.au,hiphop
country.00006.au,metal
country.00007.au,hiphop
country.00008.au,hiphop
country.00009.au,hiphop
country.00010.au,jazz
country.00011.au,jazz
country.00012.au,jazz
country.00013.au,jazz
country.00014.au,jazz
country.00015.au,classical
country.00016.au,classical
country.00017.au,country
country.00018.au,jazz
country.00019.au,classical
country.00020.au,jazz
country.00021.au,jazz
country.00022.au,jazz
country.00023.au,classical
country.00024.au,classical
country.00025.au,jazz
country.00026.au,country
country.00027.au,classical
country.00028.au,jazz
country.00029.au,jazz
country.00030.au,classical
country.00031.au,jazz
country.00032.au,jazz
country.00033.au,jazz
country.00034.au,country
country.00035.au,country
country.00036.au,classical
country.00037.au,jazz
country.00038.au,country
country.00039.au,jazz
country.00040.au,country
country.00041.au,jazz
country.00042.au,country
country.00043.au,country
country.00044.au,metal
country.00045.au,country
country.00046.au,classical
country.00047.au,classical
country.00048.au,jazz
country.00049.au,jazz
country.00050.au,metal
country.00051.au,country
country.00052.au,blues
country.00053.au,rock
country.00054.au,country
country.00055.au,metal
country.00056.au,country
country.00057.au,country
country.00058.au,country
country.00059.au,country
country.00060.au,country
country.00061.au,country
country.00062.au,country
country.00063.au,pop
country.00064.au,jazz
country.00065.au,jazz
country.00066.au,country
country.00067.au,classical
country.00068.au,jazz
country.00069.au,country
country.00070.au,country
country.00071.au,classical
country.00072.au,rock
country.00073.au,jazz
country.00074.au,jazz
country.00075.au,country
country.00076.au,jazz
country.00077.au,jazz
country.00078.au,jazz
country.00079.au,jazz
country.00080.au,metal
country.00081.au,metal
country.00082.au,country
country.00083.au,country
country.00084.au,country
country.00085.au,country
country.00086.au,metal
country.00087.au,country
country.00088.au,country
country.00089.au,country
disco.00000.au,disco
disco.00001.au,disco
disco.00002.au,country
disco.00003.au,pop
disco.00004.au,country
disco.00005.au,reggae
disco.00006.au,blues
disco.00007.au,reggae
disco.00008.au,pop
disco.00009.au,jazz
disco.00010.au,pop
disco.00011.au,jazz
disco.00012.au,pop
disco.00013.au,country
disco.00014.au,country
disco.00015.au,reggae
disco.00016.au,hiphop
disco.00017.au,jazz
disco.00018.au,country
disco.00019.au,country
disco.00020.au,country
disco.00021.au,rock
disco.00022.au,disco
disco.00023.au,reggae
disco.00024.au,country
disco.00025.au,jazz
disco.00026.au,country
disco.00027.au,metal
disco.00028.au,disco
disco.00029.au,country
disco.00030.au,disco
disco.00031.au,country
disco.00032.au,country
disco.00033.au,country
disco.00034.au,jazz
disco.00035.au,jazz
disco.00036.au,hiphop
disco.00037.au,disco
disco.00038.au,country
disco.00039.au,metal
disco.00040.au,metal
disco.00041.au,country
disco.00042.au,jazz
disco.00043.au,metal
disco.00044.au,jazz
disco.00045.au,metal
disco.00046.au,jazz
disco.00047.au,classical
disco.00048.au,jazz
disco.00049.au,metal
disco.00050.au,country
disco.00051.au,country
disco.00052.au,jazz
disco.00053.au,pop
disco.00054.au,classical
disco.00055.au,metal
disco.00056.au,country
disco.00057.au,jazz
disco.00058.au,country
disco.00059.au,country
disco.00060.au,country
disco.00061.au,pop
disco.00062.au,pop
disco.00063.au,pop
disco.00064.au,country
disco.00065.au,pop
disco.00066.au,metal
disco.00067.au,jazz
disco.00068.au,jazz
disco.00069.au,jazz
disco.00070.au,country
disco.00071.au,country
disco.00072.au,country
disco.00073.au,jazz
disco.00074.au,jazz
disco.00075.au,country
disco.00076.au,country
disco.00077.au,rock
disco.00078.au,jazz
disco.00079.au,country
disco.00080.au,jazz
disco.00081.au,jazz
disco.00082.au,pop
disco.00083.au,jazz
disco.00084.au,country
disco.00085.au,metal
disco.00086.au,country
disco.00087.au,jazz
disco.00088.au,country
disco.00089.au,jazz
hiphop.00000.au,pop
hiphop.00001.au,hiphop
hiphop.00002.au,jazz
hiphop.00003.au,pop
hiphop.00004.au,hiphop
hiphop.00005.au,hiphop
hiphop.00006.au,pop
hiphop.00007.au,pop
hiphop.00008.au,reggae
hiphop.00009.au,pop
hiphop.00010.au,metal
hiphop.00011.au,blues
hiphop.00012.au,pop
hiphop.00013.au,pop
hiphop.00014.au,reggae
hiphop.00015.au,metal
hiphop.00016.au,hiphop
hiphop.00017.au,pop
hiphop.00018.au,metal
hiphop.00019.au,pop
hiphop.00020.au,hiphop
hiphop.00021.au,hiphop
hiphop.00022.au,reggae
hiphop.00023.au,hiphop
hiphop.00024.au,pop
hiphop.00025.au,pop
hiphop.00026.au,hiphop
hiphop.00027.au,metal
hiphop.00028.au,pop
hiphop.00029.au,hiphop
hiphop.00030.au,blues
hiphop.00031.au,pop
hiphop.00032.au,pop
hiphop.00033.au,pop
hiphop.00034.au,pop
hiphop.00035.au,pop
hiphop.00036.au,reggae
hiphop.00037.au,hiphop
hiphop.00038.au,pop
hiphop.00039.au,pop
hiphop.00040.au,hiphop
hiphop.00041.au,metal
hiphop.00042.au,hiphop
hiphop.00043.au,pop
hiphop.00044.au,classical
hiphop.00045.au,pop
hiphop.00046.au,hiphop
hiphop.00047.au,pop
hiphop.00048.au,disco
hiphop.00049.au,hiphop
hiphop.00050.au,hiphop
hiphop.00051.au,reggae
hiphop.00052.au,country
hiphop.00053.au,reggae
hiphop.00054.au,country
hiphop.00055.au,country
hiphop.00056.au,reggae
hiphop.00057.au,metal
hiphop.00058.au,metal
hiphop.00059.au,reggae
hiphop.00060.au,hiphop
hiphop.00061.au,reggae
hiphop.00062.au,pop
hiphop.00063.au,hiphop
hiphop.00064.au,hiphop
hiphop.00065.au,reggae
hiphop.00066.au,hiphop
hiphop.00067.au,pop
hiphop.00068.au,disco
hiphop.00069.au,hiphop
hiphop.00070.au,hiphop
hiphop.00071.au,hiphop
hiphop.00072.au,hiphop
hiphop.00073.au,hiphop
hiphop.00074.au,hiphop
hiphop.00075.au,hiphop
hiphop.00076.au,hiphop
hiphop.00077.au,hiphop
hiphop.00078.au,hiphop
hiphop.00079.au,metal
hiphop.00080.au,metal
hiphop.00081.au,pop
hiphop.00082.au,hiphop
hiphop.00083.au,hiphop
hiphop.00084.au,blues
hiphop.00085.au,reggae
hiphop.00086.au,country
hiphop.00087.au,reggae
hiphop.00088.au,blues
hiphop.00089.au,hiphop
jazz.00000.au,classical
jazz.00001.au,classical
jazz.00002.au,classical
jazz.00003.au,jazz
jazz.00004.au,jazz
jazz.00005.au,jazz
jazz.00006.au,jazz
jazz.00007.au,jazz
jazz.00008.au,jazz
jazz.00009.au,jazz
jazz.00010.au,jazz
jazz.00011.au,jazz
jazz.00012.au,classical
jazz.00013.au,jazz
jazz.00014.au,classical
jazz.00015.au,jazz
jazz.00016.au,jazz
jazz.00017.au,classical
jazz.00018.au,jazz
jazz.00019.au,jazz
jazz.00020.au,classical
jazz.00021.au,jazz
jazz.00022.au,jazz
jazz.00023.au,jazz
jazz.00024.au,jazz
jazz.00025.au,classical
jazz.00026.au,classical
jazz.00027.au,classical
jazz.00028.au,classical
jazz.00029.au,classical
jazz.00030.au,classical
jazz.00031.au,classical
jazz.00032.au,classical
jazz.00033.au,jazz
jazz.00034.au,jazz
jazz.00035.au,blues
jazz.00036.au,classical
jazz.00037.au,jazz
jazz.00038.au,jazz
jazz.00039.au,jazz
jazz.00040.au,jazz
jazz.00041.au,classical
jazz.00042.au,jazz
jazz.00043.au,jazz
jazz.00044.au,jazz
jazz.00045.au,jazz
jazz.00046.au,jazz
jazz.00047.au,jazz
jazz.00048.au,jazz
jazz.00049.au,classical
jazz.00050.au,pop
jazz.00051.au,jazz
jazz.00052.au,reggae
jazz.00053.au,jazz
jazz.00054.au,metal
jazz.00055.au,blues
jazz.00056.au,blues
jazz.00057.au,classical
jazz.00058.au,classical
jazz.00059.au,hiphop
jazz.00060.au,jazz
jazz.00061.au,metal
jazz.00062.au,classical
jazz.00063.au,disco
jazz.00064.au,metal
jazz.00065.au,jazz
jazz.00066.au,jazz
jazz.00067.au,jazz
jazz.00068.au,jazz
jazz.00069.au,jazz
jazz.00070.au,jazz
jazz.00071.au,jazz
jazz.00072.au,jazz
jazz.00073.au,jazz
jazz.00074.au,jazz
jazz.00075.au,jazz
jazz.00076.au,classical
jazz.00077.au,jazz
jazz.00078.au,jazz
jazz.00079.au,country
jazz.00080.au,jazz
jazz.00081.au,jazz
jazz.00082.au,jazz
jazz.00083.au,jazz
jazz.00084.au,jazz
jazz.00085.au,jazz
jazz.00086.au,jazz
jazz.00087.au,jazz
jazz.00088.au,jazz
jazz.00089.au,jazz
metal.00000.au,blues
metal.00001.au,blues
metal.00002.au,country
metal.00003.au,metal
metal.00004.au,country
metal.00005.au,country
metal.00006.au,jazz
metal.00007.au,jazz
metal.00008.au,jazz
metal.00009.au,pop
metal.00010.au,jazz
metal.00011.au,metal
metal.00012.au,country
metal.00013.au,country
metal.00014.au,jazz
metal.00015.au,jazz
metal.00016.au,metal
metal.00017.au,country
metal.00018.au,country
metal.00019.au,country
metal.00020.au,rock
metal.00021.au,rock
metal.00022.au,country
metal.00023.au,pop
metal.00024.au,pop
metal.00025.au,jazz
metal.00026.au,rock
metal.00027.au,metal
metal.00028.au,country
metal.00029.au,country
metal.00030.au,hiphop
metal.00031.au,hiphop
metal.00032.au,jazz
metal.00033.au,pop
metal.00034.au,country
metal.00035.au,pop
metal.00036.au,metal
metal.00037.au,country
metal.00038.au,metal
metal.00039.au,blues
metal.00040.au,jazz
metal.00041.au,jazz
metal.00042.au,jazz
metal.00043.au,jazz
metal.00044.au,jazz
metal.00045.au,jazz
metal.00046.au,metal
metal.00047.au,pop
metal.00048.au,metal
metal.00049.au,metal
metal.00050.au,pop
metal.00051.au,metal
metal.00052.au,pop
metal.00053.au,metal
metal.00054.au,metal
metal.00055.au,pop
metal.00056.au,pop
metal.00057.au,pop
metal.00058.au,country
metal.00059.au,country
metal.00060.au,country
metal.00061.au,jazz
metal.00062.au,jazz
metal.00063.au,jazz
metal.00064.au,jazz
metal.00065.au,jazz
metal.00066.au,jazz
metal.00067.au,country
metal.00068.au,jazz
metal.00069.au,hiphop
metal.00070.au,jazz
metal.00071.au,country
metal.00072.au,reggae
metal.00073.au,pop
metal.00074.au,jazz
metal.00075.au,pop
metal.00076.au,metal
metal.00077.au,rock
metal.00078.au,pop
metal.00079.au,country
metal.00080.au,country
metal.00081.au,country
metal.00082.au,country
metal.00083.au,country
metal.00084.au,pop
metal.00085.au,jazz
metal.00086.au,jazz
metal.00087.au,pop
metal.00088.au,metal
metal.00089.au,pop
pop.00000.au,pop
pop.00001.au,pop
pop.00002.au,hiphop
pop.00003.au,metal
pop.00004.au,reggae
pop.00005.au,country
pop.00006.au,country
pop.00007.au,pop
pop.00008.au,hiphop
pop.00009.au,metal
pop.00010.au,reggae
pop.00011.au,classical
pop.00012.au,rock
pop.00013.au,hiphop
pop.00014.au,rock
pop.00015.au,hiphop
pop.00016.au,hiphop
pop.00017.au,pop
pop.00018.au,pop
pop.00019.au,pop
pop.00020.au,pop
pop.00021.au,pop
pop.00022.au,hiphop
pop.00023.au,pop
pop.00024.au,pop
pop.00025.au,metal
pop.00026.au,reggae
pop.00027.au,metal
pop.00028.au,metal
pop.00029.au,pop
pop.00030.au,pop
pop.00031.au,hiphop
pop.00032.au,country
pop.00033.au,metal
pop.00034.au,country
pop.00035.au,pop
pop.00036.au,pop
pop.00037.au,metal
pop.00038.au,reggae
pop.00039.au,hiphop
pop.00040.au,pop
pop.00041.au,country
pop.00042.au,pop
pop.00043.au,hiphop
pop.00044.au,hiphop
pop.00045.au,metal
pop.00046.au,hiphop
pop.00047.au,hiphop
pop.00048.au,pop
pop.00049.au,pop
pop.00050.au,hiphop
pop.00051.au,pop
pop.00052.au,pop
pop.00053.au,classical
pop.00054.au,pop
pop.00055.au,hiphop
pop.00056.au,pop
pop.00057.au,pop
pop.00058.au,reggae
pop.00059.au,pop
pop.00060.au,pop
pop.00061.au,pop
pop.00062.au,pop
pop.00063.au,blues
pop.00064.au,reggae
pop.00065.au,rock
pop.00066.au,pop
pop.00067.au,pop
pop.00068.au,hiphop
pop.00069.au,hiphop
pop.00070.au,pop
pop.00071.au,pop
pop.00072.au,disco
pop.00073.au,pop
pop.00074.au,pop
pop.00075.au,pop
pop.00076.au,pop
pop.00077.au,pop
pop.00078.au,hiphop
pop.00079.au,classical
pop.00080.au,hiphop
pop.00081.au,country
pop.00082.au,hiphop
pop.00083.au,metal
pop.00084.au,hiphop
pop.00085.au,reggae
pop.00086.au,country
pop.00087.au,country
pop.00088.au,pop
pop.00089.au,pop
reggae.00000.au,country
reggae.00001.au,jazz
reggae.00002.au,country
reggae.00003.au,metal
reggae.00004.au,metal
reggae.00005.au,jazz
reggae.00006.au,country
reggae.00007.au,country
reggae.00008.au,country
reggae.00009.au,metal
reggae.00010.au,classical
reggae.00011.au,metal
reggae.00012.au,country
reggae.00013.au,country
reggae.00014.au,reggae
reggae.00015.au,reggae
reggae.00016.au,reggae
reggae.00017.au,hiphop
reggae.00018.au,metal
reggae.00019.au,reggae
reggae.00020.au,metal
reggae.00021.au,hiphop
reggae.00022.au,pop
reggae.00023.au,disco
reggae.00024.au,country
reggae.00025.au,country
reggae.00026.au,reggae
reggae.00027.au,blues
reggae.00028.au,country
reggae.00029.au,country
reggae.00030.au,country
reggae.00031.au,country
reggae.00032.au,country
reggae.00033.au,country
reggae.00034.au,country
reggae.00035.au,country
reggae.00036.au,country
reggae.00037.au,country
reggae.00038.au,jazz
reggae.00039.au,reggae
reggae.00040.au,classical
reggae.00041.au,country
reggae.00042.au,country
reggae.00043.au,jazz
reggae.00044.au,metal
reggae.00045.au,disco
reggae.00046.au,jazz
reggae.00047.au,country
reggae.00048.au,country
reggae.00049.au,jazz
reggae.00050.au,hiphop
reggae.00051.au,hiphop
reggae.00052.au,hiphop
reggae.00053.au,country
reggae.00054.au,metal
reggae.00055.au,country
reggae.00056.au,jazz
reggae.00057.au,country
reggae.00058.au,country
reggae.00059.au,country
reggae.00060.au,classical
reggae.00061.au,reggae
reggae.00062.au,country
reggae.00063.au,metal
reggae.00064.au,hiphop
reggae.00065.au,pop
reggae.00066.au,metal
reggae.00067.au,reggae
reggae.00068.au,country
reggae.00069.au,country
reggae.00070.au,country
reggae.00071.au,reggae
reggae.00072.au,reggae
reggae.00073.au,pop
reggae.00074.au,pop
reggae.00075.au,metal
reggae.00076.au,pop
reggae.00077.au,metal
reggae.00078.au,country
reggae.00079.au,jazz
reggae.00080.au,pop
reggae.00081.au,pop
reggae.00082.au,pop
reggae.00083.au,jazz
reggae.00084.au,country
reggae.00085.au,jazz
reggae.00086.au,pop
reggae.00087.au,pop
reggae.00088.au,country
reggae.00089.au,reggae
rock.00000.au,rock
rock.00001.au,reggae
rock.00002.au,reggae
rock.00003.au,pop
rock.00004.au,metal
rock.00005.au,country
rock.00006.au,blues
rock.00007.au,country
rock.00008.au,country
rock.00009.au,rock
rock.00010.au,metal
rock.00011.au,blues
rock.00012.au,pop
rock.00013.au,pop
rock.00014.au,jazz
rock.00015.au,metal
rock.00016.au,country
rock.00017.au,country
rock.00018.au,country
rock.00019.au,country
rock.00020.au,jazz
rock.00021.au,jazz
rock.00022.au,jazz
rock.00023.au,jazz
rock.00024.au,jazz
rock.00025.au,country
rock.00026.au,country
rock.00027.au,jazz
rock.00028.au,country
rock.00029.au,country
rock.00030.au,jazz
rock.00031.au,jazz
rock.00032.au,hiphop
rock.00033.au,jazz
rock.00034.au,metal
rock.00035.au,reggae
rock.00036.au,metal
rock.00037.au,jazz
rock.00038.au,pop
rock.00039.au,country
rock.00040.au,country
rock.00041.au,country
rock.00042.au,country
rock.00043.au,country
rock.00044.au,country
rock.00045.au,classical
rock.00046.au,jazz
rock.00047.au,jazz
rock.00048.au,classical
rock.00049.au,rock
rock.00050.au,pop
rock.00051.au,pop
rock.00052.au,rock
rock.00053.au,rock
rock.00054.au,jazz
rock.00055.au,rock
rock.00056.au,metal
rock.00057.au,country
rock.00058.au,jazz
rock.00059.au,jazz
rock.00060.au,country
rock.00061.au,country
rock.00062.au,jazz
rock.00063.au,jazz
rock.00064.au,jazz
rock.00065.au,country
rock.00066.au,jazz
rock.00067.au,jazz
rock.00068.au,jazz
rock.00069.au,classical
rock.00070.au,classical
rock.00071.au,rock
rock.00072.au,rock
rock.00073.au,rock
rock.00074.au,rock
rock.00075.au,rock
rock.00076.au,rock
rock.00077.au,rock
rock.00078.au,rock
rock.00079.au,jazz
rock.00080.au,country
rock.00081.au,country
rock.00082.au,jazz
rock.00083.au,country
rock.00084.au,country
rock.00085.au,jazz
rock.00086.au,jazz
rock.00087.au,country
rock.00088.au,jazz
rock.00089.au,jazz
