id,class
blues.00001.au,rock
blues.00011.au,country
blues.00021.au,blues
blues.00031.au,classical
blues.00041.au,disco
blues.00051.au,reggae
blues.00061.au,blues
blues.00071.au,jazz
blues.00081.au,blues
classical.00001.au,classical
classical.00011.au,classical
classical.00021.au,classical
classical.00031.au,classical
classical.00041.au,classical
classical.00051.au,jazz
classical.00061.au,classical
classical.00071.au,classical
classical.00081.au,classical
country.00001.au,reggae
country.00011.au,jazz
country.00021.au,jazz
country.00031.au,disco
country.00041.au,country
country.00051.au,country
country.00061.au,country
country.00071.au,classical
country.00081.au,country
disco.00001.au,disco
disco.00011.au,disco
disco.00021.au,rock
disco.00031.au,metal
disco.00041.au,country
disco.00051.au,disco
disco.00061.au,hiphop
disco.00071.au,reggae
disco.00081.au,jazz
hiphop.00001.au,hiphop
hiphop.00011.au,disco
hiphop.00021.au,hiphop
hiphop.00031.au,pop
hiphop.00041.au,reggae
hiphop.00051.au,disco
hiphop.00061.au,hiphop
hiphop.00071.au,metal
hiphop.00081.au,rock
jazz.00001.au,classical
jazz.00011.au,jazz
jazz.00021.au,jazz
jazz.00031.au,classical
jazz.00041.au,jazz
jazz.00051.au,jazz
jazz.00061.au,metal
jazz.00071.au,jazz
jazz.00081.au,country
metal.00001.au,rock
metal.00011.au,blues
metal.00021.au,disco
metal.00031.au,blues
metal.00041.au,rock
metal.00051.au,metal
metal.00061.au,metal
metal.00071.au,metal
metal.00081.au,rock
pop.00001.au,pop
pop.00011.au,classical
pop.00021.au,pop
pop.00031.au,pop
pop.00041.au,country
pop.00051.au,pop
pop.00061.au,hiphop
pop.00071.au,pop
pop.00081.au,country
reggae.00001.au,blues
reggae.00011.au,country
reggae.00021.au,hiphop
reggae.00031.au,reggae
reggae.00041.au,metal
reggae.00051.au,metal
reggae.00061.au,disco
reggae.00071.au,reggae
reggae.00081.au,reggae
rock.00001.au,hiphop
rock.00011.au,blues
rock.00021.au,rock
rock.00031.au,metal
rock.00041.au,country
rock.00051.au,rock
rock.00061.au,country
rock.00071.au,blues
rock.00081.au,rock
