id,class
blues.00007.au,classical
blues.00017.au,blues
blues.00027.au,blues
blues.00037.au,classical
blues.00047.au,disco
blues.00057.au,metal
blues.00067.au,jazz
blues.00077.au,hiphop
blues.00087.au,jazz
classical.00007.au,classical
classical.00017.au,classical
classical.00027.au,classical
classical.00037.au,classical
classical.00047.au,classical
classical.00057.au,classical
classical.00067.au,classical
classical.00077.au,classical
classical.00087.au,classical
country.00007.au,reggae
country.00017.au,jazz
country.00027.au,classical
country.00037.au,blues
country.00047.au,jazz
country.00057.au,country
country.00067.au,classical
country.00077.au,rock
country.00087.au,country
disco.00007.au,country
disco.00017.au,disco
disco.00027.au,metal
disco.00037.au,reggae
disco.00047.au,classical
disco.00057.au,rock
disco.00067.au,rock
disco.00077.au,blues
disco.00087.au,reggae
hiphop.00007.au,pop
hiphop.00017.au,hiphop
hiphop.00027.au,disco
hiphop.00037.au,hiphop
hiphop.00047.au,hiphop
hiphop.00057.au,metal
hiphop.00067.au,hiphop
hiphop.00077.au,pop
hiphop.00087.au,reggae
jazz.00007.au,jazz
jazz.00017.au,classical
jazz.00027.au,classical
jazz.00037.au,jazz
jazz.00047.au,jazz
jazz.00057.au,classical
jazz.00067.au,jazz
jazz.00077.au,jazz
jazz.00087.au,jazz
metal.00007.au,jazz
metal.00017.au,metal
metal.00027.au,metal
metal.00037.au,disco
metal.00047.au,metal
metal.00057.au,metal
metal.00067.au,rock
metal.00077.au,metal
metal.00087.au,metal
pop.00007.au,country
pop.00017.au,blues
pop.00027.au,blues
pop.00037.au,metal
pop.00047.au,pop
pop.00057.au,pop
pop.00067.au,pop
pop.00077.au,pop
pop.00087.au,country
reggae.00007.au,reggae
reggae.00017.au,rock
reggae.00027.au,disco
reggae.00037.au,reggae
reggae.00047.au,country
reggae.00057.au,reggae
reggae.00067.au,reggae
reggae.00077.au,reggae
reggae.00087.au,hiphop
rock.00007.au,metal
rock.00017.au,country
rock.00027.au,metal
rock.00037.au,country
rock.00047.au,country
rock.00057.au,reggae
rock.00067.au,reggae
rock.00077.au,blues
rock.00087.au,country
