id,class
blues.00002.au,country
blues.00012.au,blues
blues.00022.au,blues
blues.00032.au,classical
blues.00042.au,disco
blues.00052.au,rock
blues.00062.au,classical
blues.00072.au,country
blues.00082.au,reggae
classical.00002.au,classical
classical.00012.au,classical
classical.00022.au,classical
classical.00032.au,classical
classical.00042.au,classical
classical.00052.au,classical
classical.00062.au,classical
classical.00072.au,classical
classical.00082.au,classical
country.00002.au,country
country.00012.au,jazz
country.00022.au,jazz
country.00032.au,country
country.00042.au,country
country.00052.au,country
country.00062.au,disco
country.00072.au,country
country.00082.au,disco
disco.00002.au,jazz
disco.00012.au,pop
disco.00022.au,reggae
disco.00032.au,reggae
disco.00042.au,jazz
disco.00052.au,rock
disco.00062.au,pop
disco.00072.au,rock
disco.00082.au,pop
hiphop.00002.au,reggae
hiphop.00012.au,rock
hiphop.00022.au,metal
hiphop.00032.au,disco
hiphop.00042.au,hiphop
hiphop.00052.au,reggae
hiphop.00062.au,hiphop
hiphop.00072.au,hiphop
hiphop.00082.au,rock
jazz.00002.au,classical
jazz.00012.au,classical
jazz.00022.au,jazz
jazz.00032.au,classical
jazz.00042.au,jazz
jazz.00052.au,jazz
jazz.00062.au,jazz
jazz.00072.au,jazz
jazz.00082.au,jazz
metal.00002.au,metal
metal.00012.au,country
metal.00022.au,disco
metal.00032.au,jazz
metal.00042.au,metal
metal.00052.au,metal
metal.00062.au,rock
metal.00072.au,reggae
metal.00082.au,disco
pop.00002.au,pop
pop.00012.au,jazz
pop.00022.au,pop
pop.00032.au,metal
pop.00042.au,metal
pop.00052.au,pop
pop.00062.au,pop
pop.00072.au,disco
pop.00082.au,hiphop
reggae.00002.au,blues
reggae.00012.au,country
reggae.00022.au,pop
reggae.00032.au,reggae
reggae.00042.au,disco
reggae.00052.au,hiphop
reggae.00062.au,rock
reggae.00072.au,reggae
reggae.00082.au,reggae
rock.00002.au,hiphop
rock.00012.au,classical
rock.00022.au,country
rock.00032.au,pop
rock.00042.au,rock
rock.00052.au,rock
rock.00062.au,rock
rock.00072.au,rock
rock.00082.au,country
