id,class
blues.00006.au,classical
blues.00016.au,blues
blues.00026.au,blues
blues.00036.au,classical
blues.00046.au,blues
blues.00056.au,pop
blues.00066.au,country
blues.00076.au,metal
blues.00086.au,jazz
classical.00006.au,classical
classical.00016.au,classical
classical.00026.au,classical
classical.00036.au,classical
classical.00046.au,classical
classical.00056.au,jazz
classical.00066.au,classical
classical.00076.au,classical
classical.00086.au,classical
country.00006.au,reggae
country.00016.au,classical
country.00026.au,country
country.00036.au,classical
country.00046.au,jazz
country.00056.au,country
country.00066.au,country
country.00076.au,jazz
country.00086.au,country
disco.00006.au,metal
disco.00016.au,disco
disco.00026.au,disco
disco.00036.au,reggae
disco.00046.au,reggae
disco.00056.au,metal
disco.00066.au,metal
disco.00076.au,rock
disco.00086.au,reggae
hiphop.00006.au,hiphop
hiphop.00016.au,reggae
hiphop.00026.au,hiphop
hiphop.00036.au,hiphop
hiphop.00046.au,hiphop
hiphop.00056.au,reggae
hiphop.00066.au,hiphop
hiphop.00076.au,hiphop
hiphop.00086.au,metal
jazz.00006.au,jazz
jazz.00016.au,jazz
jazz.00026.au,classical
jazz.00036.au,jazz
jazz.00046.au,jazz
jazz.00056.au,jazz
jazz.00066.au,country
jazz.00076.au,jazz
jazz.00086.au,rock
metal.00006.au,rock
metal.00016.au,disco
metal.00026.au,rock
metal.00036.au,metal
metal.00046.au,reggae
metal.00056.au,metal
metal.00066.au,jazz
metal.00076.au,metal
metal.00086.au,rock
pop.00006.au,country
pop.00016.au,disco
pop.00026.au,reggae
pop.00036.au,hiphop
pop.00046.au,pop
pop.00056.au,pop
pop.00066.au,pop
pop.00076.au,hiphop
pop.00086.au,rock
reggae.00006.au,reggae
reggae.00016.au,reggae
reggae.00026.au,metal
reggae.00036.au,disco
reggae.00046.au,rock
reggae.00056.au,reggae
reggae.00066.au,reggae
reggae.00076.au,pop
reggae.00086.au,rock
rock.00006.au,blues
rock.00016.au,metal
rock.00026.au,rock
rock.00036.au,country
rock.00046.au,rock
rock.00056.au,metal
rock.00066.au,classical
rock.00076.au,rock
rock.00086.au,country
