id,class
blues.00005.au,classical
blues.00015.au,blues
blues.00025.au,blues
blues.00035.au,classical
blues.00045.au,jazz
blues.00055.au,blues
blues.00065.au,classical
blues.00075.au,metal
blues.00085.au,jazz
classical.00005.au,classical
classical.00015.au,classical
classical.00025.au,classical
classical.00035.au,classical
classical.00045.au,classical
classical.00055.au,classical
classical.00065.au,classical
classical.00075.au,classical
classical.00085.au,classical
country.00005.au,hiphop
country.00015.au,rock
country.00025.au,country
country.00035.au,rock
country.00045.au,metal
country.00055.au,blues
country.00065.au,country
country.00075.au,reggae
country.00085.au,country
disco.00005.au,reggae
disco.00015.au,reggae
disco.00025.au,reggae
disco.00035.au,disco
disco.00045.au,reggae
disco.00055.au,reggae
disco.00065.au,blues
disco.00075.au,disco
disco.00085.au,metal
hiphop.00005.au,disco
hiphop.00015.au,disco
hiphop.00025.au,blues
hiphop.00035.au,pop
hiphop.00045.au,hiphop
hiphop.00055.au,metal
hiphop.00065.au,reggae
hiphop.00075.au,hiphop
hiphop.00085.au,hiphop
jazz.00005.au,jazz
jazz.00015.au,jazz
jazz.00025.au,jazz
jazz.00035.au,jazz
jazz.00045.au,jazz
jazz.00055.au,jazz
jazz.00065.au,jazz
jazz.00075.au,jazz
jazz.00085.au,blues
metal.00005.au,rock
metal.00015.au,blues
metal.00025.au,blues
metal.00035.au,pop
metal.00045.au,jazz
metal.00055.au,metal
metal.00065.au,rock
metal.00075.au,metal
metal.00085.au,rock
pop.00005.au,disco
pop.00015.au,pop
pop.00025.au,blues
pop.00035.au,pop
pop.00045.au,pop
pop.00055.au,hiphop
pop.00065.au,blues
pop.00075.au,country
pop.00085.au,disco
reggae.00005.au,reggae
reggae.00015.au,reggae
reggae.00025.au,disco
reggae.00035.au,disco
reggae.00045.au,disco
reggae.00055.au,metal
reggae.00065.au,hiphop
reggae.00075.au,rock
reggae.00085.au,disco
rock.00005.au,metal
rock.00015.au,jazz
rock.00025.au,disco
rock.00035.au,reggae
rock.00045.au,classical
rock.00055.au,rock
rock.00065.au,rock
rock.00075.au,rock
rock.00085.au,country
