id,class
blues.00001.au,blues
blues.00011.au,country
blues.00021.au,jazz
blues.00031.au,classical
blues.00041.au,pop
blues.00051.au,disco
blues.00061.au,hiphop
blues.00071.au,blues
blues.00081.au,reggae
classical.00001.au,classical
classical.00011.au,classical
classical.00021.au,jazz
classical.00031.au,jazz
classical.00041.au,classical
classical.00051.au,rock
classical.00061.au,classical
classical.00071.au,classical
classical.00081.au,jazz
country.00001.au,hiphop
country.00011.au,classical
country.00021.au,blues
country.00031.au,blues
country.00041.au,rock
country.00051.au,blues
country.00061.au,country
country.00071.au,country
country.00081.au,rock
disco.00001.au,rock
disco.00011.au,rock
disco.00021.au,pop
disco.00031.au,metal
disco.00041.au,country
disco.00051.au,hiphop
disco.00061.au,jazz
disco.00071.au,hiphop
disco.00081.au,country
hiphop.00001.au,hiphop
hiphop.00011.au,hiphop
hiphop.00021.au,disco
hiphop.00031.au,hiphop
hiphop.00041.au,pop
hiphop.00051.au,hiphop
hiphop.00061.au,hiphop
hiphop.00071.au,pop
hiphop.00081.au,metal
jazz.00001.au,country
jazz.00011.au,classical
jazz.00021.au,disco
jazz.00031.au,jazz
jazz.00041.au,jazz
jazz.00051.au,jazz
jazz.00061.au,disco
jazz.00071.au,classical
jazz.00081.au,pop
metal.00001.au,metal
metal.00011.au,metal
metal.00021.au,metal
metal.00031.au,metal
metal.00041.au,metal
metal.00051.au,metal
metal.00061.au,metal
metal.00071.au,metal
metal.00081.au,metal
pop.00001.au,pop
pop.00011.au,classical
pop.00021.au,metal
pop.00031.au,pop
pop.00041.au,classical
pop.00051.au,pop
pop.00061.au,hiphop
pop.00071.au,hiphop
pop.00081.au,rock
reggae.00001.au,pop
reggae.00011.au,pop
reggae.00021.au,disco
reggae.00031.au,disco
reggae.00041.au,blues
reggae.00051.au,metal
reggae.00061.au,pop
reggae.00071.au,disco
reggae.00081.au,hiphop
rock.00001.au,pop
rock.00011.au,pop
rock.00021.au,disco
rock.00031.au,rock
rock.00041.au,disco
rock.00051.au,pop
rock.00061.au,country
rock.00071.au,metal
rock.00081.au,disco
