id,class
blues.00002.au,reggae
blues.00012.au,jazz
blues.00022.au,jazz
blues.00032.au,jazz
blues.00042.au,country
blues.00052.au,jazz
blues.00062.au,jazz
blues.00072.au,country
blues.00082.au,country
classical.00002.au,jazz
classical.00012.au,classical
classical.00022.au,jazz
classical.00032.au,jazz
classical.00042.au,classical
classical.00052.au,reggae
classical.00062.au,jazz
classical.00072.au,classical
classical.00082.au,jazz
country.00002.au,country
country.00012.au,country
country.00022.au,country
country.00032.au,country
country.00042.au,reggae
country.00052.au,jazz
country.00062.au,rock
country.00072.au,country
country.00082.au,disco
disco.00002.au,rock
disco.00012.au,disco
disco.00022.au,hiphop
disco.00032.au,country
disco.00042.au,rock
disco.00052.au,hiphop
disco.00062.au,disco
disco.00072.au,hiphop
disco.00082.au,disco
hiphop.00002.au,reggae
hiphop.00012.au,country
hiphop.00022.au,hiphop
hiphop.00032.au,hiphop
hiphop.00042.au,hiphop
hiphop.00052.au,hiphop
hiphop.00062.au,hiphop
hiphop.00072.au,disco
hiphop.00082.au,hiphop
jazz.00002.au,classical
jazz.00012.au,reggae
jazz.00022.au,classical
jazz.00032.au,jazz
jazz.00042.au,jazz
jazz.00052.au,reggae
jazz.00062.au,jazz
jazz.00072.au,jazz
jazz.00082.au,hiphop
metal.00002.au,hiphop
metal.00012.au,metal
metal.00022.au,rock
metal.00032.au,metal
metal.00042.au,hiphop
metal.00052.au,metal
metal.00062.au,metal
metal.00072.au,metal
metal.00082.au,metal
pop.00002.au,reggae
pop.00012.au,disco
pop.00022.au,pop
pop.00032.au,pop
pop.00042.au,pop
pop.00052.au,metal
pop.00062.au,jazz
pop.00072.au,metal
pop.00082.au,hiphop
reggae.00002.au,pop
reggae.00012.au,hiphop
reggae.00022.au,hiphop
reggae.00032.au,metal
reggae.00042.au,hiphop
reggae.00052.au,hiphop
reggae.00062.au,disco
reggae.00072.au,hiphop
reggae.00082.au,hiphop
rock.00002.au,hiphop
rock.00012.au,reggae
rock.00022.au,hiphop
rock.00032.au,reggae
rock.00042.au,hiphop
rock.00052.au,pop
rock.00062.au,country
rock.00072.au,rock
rock.00082.au,disco
