id,class
blues.00007.au,blues
blues.00017.au,country
blues.00027.au,classical
blues.00037.au,jazz
blues.00047.au,pop
blues.00057.au,hiphop
blues.00067.au,rock
blues.00077.au,disco
blues.00087.au,country
classical.00007.au,jazz
classical.00017.au,country
classical.00027.au,classical
classical.00037.au,country
classical.00047.au,country
classical.00057.au,classical
classical.00067.au,classical
classical.00077.au,classical
classical.00087.au,classical
country.00007.au,pop
country.00017.au,country
country.00027.au,rock
country.00037.au,pop
country.00047.au,classical
country.00057.au,jazz
country.00067.au,jazz
country.00077.au,blues
country.00087.au,country
disco.00007.au,hiphop
disco.00017.au,disco
disco.00027.au,metal
disco.00037.au,metal
disco.00047.au,classical
disco.00057.au,pop
disco.00067.au,country
disco.00077.au,rock
disco.00087.au,disco
hiphop.00007.au,rock
hiphop.00017.au,metal
hiphop.00027.au,reggae
hiphop.00037.au,pop
hiphop.00047.au,metal
hiphop.00057.au,metal
hiphop.00067.au,hiphop
hiphop.00077.au,metal
hiphop.00087.au,metal
jazz.00007.au,classical
jazz.00017.au,hiphop
jazz.00027.au,jazz
jazz.00037.au,classical
jazz.00047.au,blues
jazz.00057.au,classical
jazz.00067.au,classical
jazz.00077.au,country
jazz.00087.au,pop
metal.00007.au,metal
metal.00017.au,metal
metal.00027.au,metal
metal.00037.au,pop
metal.00047.au,metal
metal.00057.au,metal
metal.00067.au,metal
metal.00077.au,hiphop
metal.00087.au,metal
pop.00007.au,classical
pop.00017.au,hiphop
pop.00027.au,country
pop.00037.au,hiphop
pop.00047.au,pop
pop.00057.au,hiphop
pop.00067.au,hiphop
pop.00077.au,pop
pop.00087.au,pop
reggae.00007.au,blues
reggae.00017.au,country
reggae.00027.au,disco
reggae.00037.au,metal
reggae.00047.au,disco
reggae.00057.au,pop
reggae.00067.au,rock
reggae.00077.au,reggae
reggae.00087.au,pop
rock.00007.au,rock
rock.00017.au,rock
rock.00027.au,hiphop
rock.00037.au,metal
rock.00047.au,metal
rock.00057.au,rock
rock.00067.au,rock
rock.00077.au,metal
rock.00087.au,rock
