id,class
blues.00003.au,rock
blues.00013.au,blues
blues.00023.au,jazz
blues.00033.au,classical
blues.00043.au,hiphop
blues.00053.au,disco
blues.00063.au,country
blues.00073.au,pop
blues.00083.au,disco
classical.00003.au,classical
classical.00013.au,classical
classical.00023.au,classical
classical.00033.au,jazz
classical.00043.au,classical
classical.00053.au,jazz
classical.00063.au,classical
classical.00073.au,classical
classical.00083.au,classical
country.00003.au,country
country.00013.au,country
country.00023.au,jazz
country.00033.au,country
country.00043.au,rock
country.00053.au,rock
country.00063.au,jazz
country.00073.au,reggae
country.00083.au,country
disco.00003.au,hiphop
disco.00013.au,hiphop
disco.00023.au,hiphop
disco.00033.au,country
disco.00043.au,rock
disco.00053.au,hiphop
disco.00063.au,metal
disco.00073.au,hiphop
disco.00083.au,disco
hiphop.00003.au,hiphop
hiphop.00013.au,blues
hiphop.00023.au,disco
hiphop.00033.au,metal
hiphop.00043.au,rock
hiphop.00053.au,hiphop
hiphop.00063.au,hiphop
hiphop.00073.au,hiphop
hiphop.00083.au,hiphop
jazz.00003.au,jazz
jazz.00013.au,country
jazz.00023.au,classical
jazz.00033.au,jazz
jazz.00043.au,classical
jazz.00053.au,jazz
jazz.00063.au,disco
jazz.00073.au,country
jazz.00083.au,hiphop
metal.00003.au,metal
metal.00013.au,metal
metal.00023.au,metal
metal.00033.au,metal
metal.00043.au,hiphop
metal.00053.au,metal
metal.00063.au,hiphop
metal.00073.au,hiphop
metal.00083.au,metal
pop.00003.au,blues
pop.00013.au,jazz
pop.00023.au,pop
pop.00033.au,disco
pop.00043.au,hiphop
pop.00053.au,jazz
pop.00063.au,jazz
pop.00073.au,hiphop
pop.00083.au,jazz
reggae.00003.au,country
reggae.00013.au,country
reggae.00023.au,hiphop
reggae.00033.au,hiphop
reggae.00043.au,country
reggae.00053.au,hiphop
reggae.00063.au,reggae
reggae.00073.au,reggae
reggae.00083.au,jazz
rock.00003.au,disco
rock.00013.au,reggae
rock.00023.au,blues
rock.00033.au,country
rock.00043.au,hiphop
rock.00053.au,disco
rock.00063.au,jazz
rock.00073.au,hiphop
rock.00083.au,reggae
