id,class
blues.00008.au,rock
blues.00018.au,jazz
blues.00028.au,classical
blues.00038.au,classical
blues.00048.au,pop
blues.00058.au,pop
blues.00068.au,blues
blues.00078.au,hiphop
blues.00088.au,pop
classical.00008.au,classical
classical.00018.au,classical
classical.00028.au,classical
classical.00038.au,country
classical.00048.au,country
classical.00058.au,classical
classical.00068.au,classical
classical.00078.au,classical
classical.00088.au,jazz
country.00008.au,country
country.00018.au,reggae
country.00028.au,country
country.00038.au,rock
country.00048.au,blues
country.00058.au,blues
country.00068.au,country
country.00078.au,country
country.00088.au,country
disco.00008.au,hiphop
disco.00018.au,pop
disco.00028.au,metal
disco.00038.au,disco
disco.00048.au,hiphop
disco.00058.au,hiphop
disco.00068.au,hiphop
disco.00078.au,blues
disco.00088.au,reggae
hiphop.00008.au,metal
hiphop.00018.au,hiphop
hiphop.00028.au,disco
hiphop.00038.au,disco
hiphop.00048.au,metal
hiphop.00058.au,metal
hiphop.00068.au,metal
hiphop.00078.au,reggae
hiphop.00088.au,hiphop
jazz.00008.au,disco
jazz.00018.au,blues
jazz.00028.au,jazz
jazz.00038.au,jazz
jazz.00048.au,jazz
jazz.00058.au,jazz
jazz.00068.au,jazz
jazz.00078.au,jazz
jazz.00088.au,jazz
metal.00008.au,metal
metal.00018.au,metal
metal.00028.au,metal
metal.00038.au,metal
metal.00048.au,metal
metal.00058.au,metal
metal.00068.au,metal
metal.00078.au,metal
metal.00088.au,hiphop
pop.00008.au,pop
pop.00018.au,pop
pop.00028.au,pop
pop.00038.au,rock
pop.00048.au,rock
pop.00058.au,country
pop.00068.au,hiphop
pop.00078.au,hiphop
pop.00088.au,hiphop
reggae.00008.au,country
reggae.00018.au,disco
reggae.00028.au,hiphop
reggae.00038.au,country
reggae.00048.au,disco
reggae.00058.au,pop
reggae.00068.au,country
reggae.00078.au,hiphop
reggae.00088.au,disco
rock.00008.au,disco
rock.00018.au,metal
rock.00028.au,hiphop
rock.00038.au,disco
rock.00048.au,country
rock.00058.au,blues
rock.00068.au,rock
rock.00078.au,reggae
rock.00088.au,hiphop
