id,class
blues.00000.au,rock
blues.00001.au,rock
blues.00002.au,reggae
blues.00003.au,disco
blues.00004.au,classical
blues.00005.au,classical
blues.00006.au,classical
blues.00007.au,classical
blues.00008.au,country
blues.00009.au,classical
blues.00010.au,rock
blues.00011.au,country
blues.00012.au,blues
blues.00013.au,blues
blues.00014.au,blues
blues.00015.au,blues
blues.00016.au,blues
blues.00017.au,blues
blues.00018.au,blues
blues.00019.au,blues
blues.00020.au,blues
blues.00021.au,blues
blues.00022.au,blues
blues.00023.au,blues
blues.00024.au,blues
blues.00025.au,blues
blues.00026.au,blues
blues.00027.au,blues
blues.00028.au,blues
blues.00029.au,classical
blues.00030.au,classical
blues.00031.au,classical
blues.00032.au,classical
blues.00033.au,classical
blues.00034.au,classical
blues.00035.au,classical
blues.00036.au,classical
blues.00037.au,classical
blues.00038.au,classical
blues.00039.au,classical
blues.00040.au,disco
blues.00041.au,blues
blues.00042.au,disco
blues.00043.au,blues
blues.00044.au,metal
blues.00045.au,jazz
blues.00046.au,blues
blues.00047.au,disco
blues.00048.au,blues
blues.00049.au,metal
blues.00050.au,blues
blues.00051.au,reggae
blues.00052.au,rock
blues.00053.au,blues
blues.00054.au,pop
blues.00055.au,blues
blues.00056.au,country
blues.00057.au,metal
blues.00058.au,pop
blues.00059.au,metal
blues.00060.au,country
blues.00061.au,blues
blues.00062.au,classical
blues.00063.au,classical
blues.00064.au,rock
blues.00065.au,classical
blues.00066.au,country
blues.00067.au,jazz
blues.00068.au,disco
blues.00069.au,classical
blues.00070.au,jazz
blues.00071.au,jazz
blues.00072.au,country
blues.00073.au,pop
blues.00074.au,pop
blues.00075.au,metal
blues.00076.au,metal
blues.00077.au,hiphop
blues.00078.au,blues
blues.00079.au,jazz
blues.00080.au,blues
blues.00081.au,blues
blues.00082.au,reggae
blues.00083.au,hiphop
blues.00084.au,metal
blues.00085.au,jazz
blues.00086.au,jazz
blues.00087.au,jazz
blues.00088.au,jazz
blues.00089.au,jazz
classical.00000.au,classical
classical.00001.au,classical
classical.00002.au,classical
classical.00003.au,classical
classical.00004.au,classical
classical.00005.au,classical
classical.00006.au,classical
classical.00007.au,classical
classical.00008.au,classical
classical.00009.au,classical
classical.00010.au,classical
classical.00011.au,classical
classical.00012.au,classical
classical.00013.au,classical
classical.00014.au,classical
classical.00015.au,classical
classical.00016.au,classical
classical.00017.au,classical
classical.00018.au,classical
classical.00019.au,classical
classical.00020.au,classical
classical.00021.au,classical
classical.00022.au,classical
classical.00023.au,classical
classical.00024.au,classical
classical.00025.au,classical
classical.00026.au,classical
classical.00027.au,classical
classical.00028.au,classical
classical.00029.au,classical
classical.00030.au,classical
classical.00031.au,classical
classical.00032.au,classical
classical.00033.au,classical
classical.00034.au,classical
classical.00035.au,classical
classical.00036.au,classical
classical.00037.au,classical
classical.00038.au,classical
classical.00039.au,classical
classical.00040.au,classical
classical.00041.au,classical
classical.00042.au,classical
classical.00043.au,classical
classical.00044.au,classical
classical.00045.au,classical
classical.00046.au,classical
classical.00047.au,classical
classical.00048.au,disco
classical.00049.au,classical
classical.00050.au,classical
classical.00051.au,jazz
classical.00052.au,classical
classical.00053.au,jazz
classical.00054.au,rock
classical.00055.au,classical
classical.00056.au,jazz
classical.00057.au,classical
classical.00058.au,classical
classical.00059.au,classical
classical.00060.au,classical
classical.00061.au,classical
classical.00062.au,classical
classical.00063.au,classical
classical.00064.au,classical
classical.00065.au,classical
classical.00066.au,classical
classical.00067.au,classical
classical.00068.au,classical
classical.00069.au,classical
classical.00070.au,classical
classical.00071.au,classical
classical.00072.au,classical
classical.00073.au,classical
classical.00074.au,classical
classical.00075.au,classical
classical.00076.au,classical
classical.00077.au,classical
classical.00078.au,classical
classical.00079.au,classical
classical.00080.au,classical
classical.00081.au,classical
classical.00082.au,classical
classical.00083.au,classical
classical.00084.au,classical
classical.00085.au,classical
classical.00086.au,classical
classical.00087.au,classical
classical.00088.au,classical
classical.00089.au,classical
country.00000.au,reggae
country.00001.au,reggae
country.00002.au,country
country.00003.au,metal
country.00004.au,reggae
country.00005.au,hiphop
country.00006.au,reggae
country.00007.au,reggae
country.00008.au,metal
country.00009.au,disco
country.00010.au,jazz
country.00011.au,jazz
country.00012.au,jazz
country.00013.au,country
country.00014.au,disco
country.00015.au,rock
country.00016.au,classical
country.00017.au,jazz
country.00018.au,jazz
country.00019.au,jazz
country.00020.au,jazz
country.00021.au,jazz
country.00022.au,jazz
country.00023.au,classical
country.00024.au,classical
country.00025.au,country
country.00026.au,country
country.00027.au,classical
country.00028.au,country
country.00029.au,jazz
country.00030.au,country
country.00031.au,disco
country.00032.au,country
country.00033.au,disco
country.00034.au,rock
country.00035.au,country
country.00036.au,classical
country.00037.au,blues
country.00038.au,blues
country.00039.au,rock
country.00040.au,disco
country.00041.au,country
country.00042.au,country
country.00043.au,metal
country.00044.au,country
country.00045.au,metal
country.00046.au,country
country.00047.au,jazz
country.00048.au,reggae
country.00049.au,jazz
country.00050.au,pop
country.00051.au,country
country.00052.au,country
country.00053.au,metal
country.00054.au,country
country.00055.au,blues
country.00056.au,country
country.00057.au,country
country.00058.au,hiphop
country.00059.au,rock
country.00060.au,rock
country.00061.au,country
country.00062.au,disco
country.00063.au,blues
country.00064.au,country
country.00065.au,country
country.00066.au,country
country.00067.au,classical
country.00068.au,jazz
country.00069.au,country
country.00070.au,reggae
country.00071.au,classical
country.00072.au,country
country.00073.au,country
country.00074.au,country
country.00075.au,reggae
country.00076.au,jazz
country.00077.au,rock
country.00078.au,country
country.00079.au,country
country.00080.au,pop
country.00081.au,country
country.00082.au,rock
country.00083.au,country
country.00084.au,rock
country.00085.au,country
country.00086.au,country
country.00087.au,country
country.00088.au,country
country.00089.au,country
disco.00000.au,hiphop
disco.00001.au,disco
disco.00002.au,jazz
disco.00003.au,disco
disco.00004.au,blues
disco.00005.au,reggae
disco.00006.au,metal
disco.00007.au,country
disco.00008.au,metal
disco.00009.au,reggae
disco.00010.au,disco
disco.00011.au,disco
disco.00012.au,pop
disco.00013.au,reggae
disco.00014.au,disco
disco.00015.au,reggae
disco.00016.au,disco
disco.00017.au,jazz
disco.00018.au,metal
disco.00019.au,disco
disco.00020.au,country
disco.00021.au,rock
disco.00022.au,reggae
disco.00023.au,hiphop
disco.00024.au,reggae
disco.00025.au,reggae
disco.00026.au,disco
disco.00027.au,metal
disco.00028.au,reggae
disco.00029.au,disco
disco.00030.au,hiphop
disco.00031.au,metal
disco.00032.au,reggae
disco.00033.au,hiphop
disco.00034.au,jazz
disco.00035.au,disco
disco.00036.au,reggae
disco.00037.au,reggae
disco.00038.au,country
disco.00039.au,country
disco.00040.au,metal
disco.00041.au,country
disco.00042.au,jazz
disco.00043.au,metal
disco.00044.au,reggae
disco.00045.au,reggae
disco.00046.au,disco
disco.00047.au,classical
disco.00048.au,reggae
disco.00049.au,blues
disco.00050.au,rock
disco.00051.au,disco
disco.00052.au,reggae
disco.00053.au,disco
disco.00054.au,classical
disco.00055.au,reggae
disco.00056.au,metal
disco.00057.au,rock
disco.00058.au,rock
disco.00059.au,metal
disco.00060.au,disco
disco.00061.au,hiphop
disco.00062.au,pop
disco.00063.au,pop
disco.00064.au,rock
disco.00065.au,blues
disco.00066.au,metal
disco.00067.au,metal
disco.00068.au,blues
disco.00069.au,jazz
disco.00070.au,rock
disco.00071.au,reggae
disco.00072.au,rock
disco.00073.au,jazz
disco.00074.au,reggae
disco.00075.au,disco
disco.00076.au,rock
disco.00077.au,blues
disco.00078.au,disco
disco.00079.au,disco
disco.00080.au,disco
disco.00081.au,jazz
disco.00082.au,pop
disco.00083.au,blues
disco.00084.au,disco
disco.00085.au,metal
disco.00086.au,reggae
disco.00087.au,reggae
disco.00088.au,disco
disco.00089.au,jazz
hiphop.00000.au,blues
hiphop.00001.au,hiphop
hiphop.00002.au,reggae
hiphop.00003.au,disco
hiphop.00004.au,hiphop
hiphop.00005.au,disco
hiphop.00006.au,pop
hiphop.00007.au,pop
hiphop.00008.au,reggae
hiphop.00009.au,blues
hiphop.00010.au,blues
hiphop.00011.au,disco
hiphop.00012.au,rock
hiphop.00013.au,blues
hiphop.00014.au,reggae
hiphop.00015.au,disco
hiphop.00016.au,reggae
hiphop.00017.au,disco
hiphop.00018.au,reggae
hiphop.00019.au,blues
hiphop.00020.au,reggae
hiphop.00021.au,hiphop
hiphop.00022.au,metal
hiphop.00023.au,pop
hiphop.00024.au,metal
hiphop.00025.au,pop
hiphop.00026.au,hiphop
hiphop.00027.au,disco
hiphop.00028.au,pop
hiphop.00029.au,hiphop
hiphop.00030.au,jazz
hiphop.00031.au,pop
hiphop.00032.au,disco
hiphop.00033.au,hiphop
hiphop.00034.au,blues
hiphop.00035.au,reggae
hiphop.00036.au,hiphop
hiphop.00037.au,hiphop
hiphop.00038.au,pop
hiphop.00039.au,hiphop
hiphop.00040.au,pop
hiphop.00041.au,reggae
hiphop.00042.au,blues
hiphop.00043.au,pop
hiphop.00044.au,jazz
hiphop.00045.au,hiphop
hiphop.00046.au,hiphop
hiphop.00047.au,hiphop
hiphop.00048.au,blues
hiphop.00049.au,disco
hiphop.00050.au,hiphop
hiphop.00051.au,disco
hiphop.00052.au,metal
hiphop.00053.au,disco
hiphop.00054.au,hiphop
hiphop.00055.au,metal
hiphop.00056.au,reggae
hiphop.00057.au,metal
hiphop.00058.au,metal
hiphop.00059.au,reggae
hiphop.00060.au,rock
hiphop.00061.au,hiphop
hiphop.00062.au,hiphop
hiphop.00063.au,hiphop
hiphop.00064.au,disco
hiphop.00065.au,hiphop
hiphop.00066.au,hiphop
hiphop.00067.au,hiphop
hiphop.00068.au,blues
hiphop.00069.au,disco
hiphop.00070.au,reggae
hiphop.00071.au,metal
hiphop.00072.au,hiphop
hiphop.00073.au,disco
hiphop.00074.au,pop
hiphop.00075.au,hiphop
hiphop.00076.au,hiphop
hiphop.00077.au,pop
hiphop.00078.au,hiphop
hiphop.00079.au,pop
hiphop.00080.au,metal
hiphop.00081.au,rock
hiphop.00082.au,rock
hiphop.00083.au,rock
hiphop.00084.au,blues
hiphop.00085.au,hiphop
hiphop.00086.au,metal
hiphop.00087.au,reggae
hiphop.00088.au,pop
hiphop.00089.au,metal
jazz.00000.au,classical
jazz.00001.au,classical
jazz.00002.au,classical
jazz.00003.au,country
jazz.00004.au,country
jazz.00005.au,jazz
jazz.00006.au,jazz
jazz.00007.au,jazz
jazz.00008.au,jazz
jazz.00009.au,jazz
jazz.00010.au,jazz
jazz.00011.au,jazz
jazz.00012.au,classical
jazz.00013.au,jazz
jazz.00014.au,classical
jazz.00015.au,jazz
jazz.00016.au,jazz
jazz.00017.au,classical
jazz.00018.au,jazz
jazz.00019.au,jazz
jazz.00020.au,classical
jazz.00021.au,jazz
jazz.00022.au,jazz
jazz.00023.au,jazz
jazz.00024.au,jazz
jazz.00025.au,jazz
jazz.00026.au,classical
jazz.00027.au,classical
jazz.00028.au,classical
jazz.00029.au,classical
jazz.00030.au,classical
jazz.00031.au,classical
jazz.00032.au,classical
jazz.00033.au,jazz
jazz.00034.au,jazz
jazz.00035.au,jazz
jazz.00036.au,jazz
jazz.00037.au,jazz
jazz.00038.au,jazz
jazz.00039.au,jazz
jazz.00040.au,jazz
jazz.00041.au,jazz
jazz.00042.au,jazz
jazz.00043.au,jazz
jazz.00044.au,jazz
jazz.00045.au,jazz
jazz.00046.au,jazz
jazz.00047.au,jazz
jazz.00048.au,jazz
jazz.00049.au,classical
jazz.00050.au,pop
jazz.00051.au,jazz
jazz.00052.au,jazz
jazz.00053.au,jazz
jazz.00054.au,disco
jazz.00055.au,jazz
jazz.00056.au,jazz
jazz.00057.au,classical
jazz.00058.au,jazz
jazz.00059.au,reggae
jazz.00060.au,jazz
jazz.00061.au,metal
jazz.00062.au,jazz
jazz.00063.au,disco
jazz.00064.au,reggae
jazz.00065.au,jazz
jazz.00066.au,country
jazz.00067.au,jazz
jazz.00068.au,jazz
jazz.00069.au,jazz
jazz.00070.au,jazz
jazz.00071.au,jazz
jazz.00072.au,jazz
jazz.00073.au,jazz
jazz.00074.au,jazz
jazz.00075.au,jazz
jazz.00076.au,jazz
jazz.00077.au,jazz
jazz.00078.au,jazz
jazz.00079.au,hiphop
jazz.00080.au,country
jazz.00081.au,country
jazz.00082.au,jazz
jazz.00083.au,jazz
jazz.00084.au,jazz
jazz.00085.au,blues
jazz.00086.au,rock
jazz.00087.au,jazz
jazz.00088.au,jazz
jazz.00089.au,jazz
metal.00000.au,metal
metal.00001.au,rock
metal.00002.au,metal
metal.00003.au,hiphop
metal.00004.au,metal
metal.00005.au,rock
metal.00006.au,rock
metal.00007.au,jazz
metal.00008.au,country
metal.00009.au,hiphop
metal.00010.au,blues
metal.00011.au,blues
metal.00012.au,country
metal.00013.au,metal
metal.00014.au,country
metal.00015.au,blues
metal.00016.au,disco
metal.00017.au,metal
metal.00018.au,blues
metal.00019.au,metal
metal.00020.au,metal
metal.00021.au,disco
metal.00022.au,disco
metal.00023.au,pop
metal.00024.au,hiphop
metal.00025.au,blues
metal.00026.au,rock
metal.00027.au,metal
metal.00028.au,disco
metal.00029.au,rock
metal.00030.au,disco
metal.00031.au,blues
metal.00032.au,jazz
metal.00033.au,blues
metal.00034.au,rock
metal.00035.au,pop
metal.00036.au,metal
metal.00037.au,disco
metal.00038.au,hiphop
metal.00039.au,blues
metal.00040.au,metal
metal.00041.au,rock
metal.00042.au,metal
metal.00043.au,metal
metal.00044.au,rock
metal.00045.au,jazz
metal.00046.au,metal
metal.00047.au,metal
metal.00048.au,disco
metal.00049.au,metal
metal.00050.au,metal
metal.00051.au,metal
metal.00052.au,metal
metal.00053.au,metal
metal.00054.au,metal
metal.00055.au,metal
metal.00056.au,metal
metal.00057.au,metal
metal.00058.au,rock
metal.00059.au,reggae
metal.00060.au,reggae
metal.00061.au,metal
metal.00062.au,rock
metal.00063.au,reggae
metal.00064.au,metal
metal.00065.au,metal
metal.00066.au,jazz
metal.00067.au,rock
metal.00068.au,metal
metal.00069.au,hiphop
metal.00070.au,blues
metal.00071.au,metal
metal.00072.au,reggae
metal.00073.au,pop
metal.00074.au,jazz
metal.00075.au,blues
metal.00076.au,metal
metal.00077.au,metal
metal.00078.au,blues
metal.00079.au,reggae
metal.00080.au,country
metal.00081.au,rock
metal.00082.au,disco
metal.00083.au,reggae
metal.00084.au,metal
metal.00085.au,rock
metal.00086.au,rock
metal.00087.au,metal
metal.00088.au,pop
metal.00089.au,blues
pop.00000.au,pop
pop.00001.au,pop
pop.00002.au,pop
pop.00003.au,country
pop.00004.au,country
pop.00005.au,rock
pop.00006.au,disco
pop.00007.au,country
pop.00008.au,hiphop
pop.00009.au,reggae
pop.00010.au,rock
pop.00011.au,classical
pop.00012.au,jazz
pop.00013.au,country
pop.00014.au,rock
pop.00015.au,pop
pop.00016.au,disco
pop.00017.au,pop
pop.00018.au,pop
pop.00019.au,hiphop
pop.00020.au,pop
pop.00021.au,pop
pop.00022.au,pop
pop.00023.au,pop
pop.00024.au,metal
pop.00025.au,blues
pop.00026.au,reggae
pop.00027.au,blues
pop.00028.au,hiphop
pop.00029.au,pop
pop.00030.au,pop
pop.00031.au,pop
pop.00032.au,metal
pop.00033.au,metal
pop.00034.au,pop
pop.00035.au,pop
pop.00036.au,hiphop
pop.00037.au,metal
pop.00038.au,reggae
pop.00039.au,metal
pop.00040.au,blues
pop.00041.au,country
pop.00042.au,pop
pop.00043.au,pop
pop.00044.au,reggae
pop.00045.au,pop
pop.00046.au,pop
pop.00047.au,pop
pop.00048.au,metal
pop.00049.au,pop
pop.00050.au,metal
pop.00051.au,pop
pop.00052.au,pop
pop.00053.au,classical
pop.00054.au,pop
pop.00055.au,hiphop
pop.00056.au,pop
pop.00057.au,pop
pop.00058.au,reggae
pop.00059.au,pop
pop.00060.au,pop
pop.00061.au,hiphop
pop.00062.au,pop
pop.00063.au,blues
pop.00064.au,hiphop
pop.00065.au,blues
pop.00066.au,pop
pop.00067.au,pop
pop.00068.au,reggae
pop.00069.au,metal
pop.00070.au,pop
pop.00071.au,pop
pop.00072.au,disco
pop.00073.au,pop
pop.00074.au,metal
pop.00075.au,country
pop.00076.au,hiphop
pop.00077.au,pop
pop.00078.au,hiphop
pop.00079.au,classical
pop.00080.au,pop
pop.00081.au,country
pop.00082.au,metal
pop.00083.au,pop
pop.00084.au,reggae
pop.00085.au,disco
pop.00086.au,rock
pop.00087.au,country
pop.00088.au,reggae
pop.00089.au,metal
reggae.00000.au,country
reggae.00001.au,blues
reggae.00002.au,blues
reggae.00003.au,reggae
reggae.00004.au,metal
reggae.00005.au,reggae
reggae.00006.au,reggae
reggae.00007.au,reggae
reggae.00008.au,reggae
reggae.00009.au,disco
reggae.00010.au,classical
reggae.00011.au,country
reggae.00012.au,country
reggae.00013.au,disco
reggae.00014.au,hiphop
reggae.00015.au,reggae
reggae.00016.au,reggae
reggae.00017.au,rock
reggae.00018.au,country
reggae.00019.au,reggae
reggae.00020.au,reggae
reggae.00021.au,hiphop
reggae.00022.au,pop
reggae.00023.au,metal
reggae.00024.au,disco
reggae.00025.au,disco
reggae.00026.au,metal
reggae.00027.au,disco
reggae.00028.au,reggae
reggae.00029.au,reggae
reggae.00030.au,disco
reggae.00031.au,reggae
reggae.00032.au,reggae
reggae.00033.au,reggae
reggae.00034.au,reggae
reggae.00035.au,reggae
reggae.00036.au,disco
reggae.00037.au,reggae
reggae.00038.au,reggae
reggae.00039.au,disco
reggae.00040.au,classical
reggae.00041.au,metal
reggae.00042.au,disco
reggae.00043.au,country
reggae.00044.au,metal
reggae.00045.au,disco
reggae.00046.au,rock
reggae.00047.au,country
reggae.00048.au,disco
reggae.00049.au,blues
reggae.00050.au,disco
reggae.00051.au,metal
reggae.00052.au,hiphop
reggae.00053.au,reggae
reggae.00054.au,reggae
reggae.00055.au,metal
reggae.00056.au,reggae
reggae.00057.au,reggae
reggae.00058.au,disco
reggae.00059.au,disco
reggae.00060.au,classical
reggae.00061.au,disco
reggae.00062.au,metal
reggae.00063.au,blues
reggae.00064.au,hiphop
reggae.00065.au,reggae
reggae.00066.au,reggae
reggae.00067.au,reggae
reggae.00068.au,country
reggae.00069.au,reggae
reggae.00070.au,jazz
reggae.00071.au,reggae
reggae.00072.au,reggae
reggae.00073.au,reggae
reggae.00074.au,reggae
reggae.00075.au,rock
reggae.00076.au,pop
reggae.00077.au,blues
reggae.00078.au,disco
reggae.00079.au,blues
reggae.00080.au,reggae
reggae.00081.au,reggae
reggae.00082.au,reggae
reggae.00083.au,classical
reggae.00084.au,rock
reggae.00085.au,disco
reggae.00086.au,rock
reggae.00087.au,hiphop
reggae.00088.au,disco
reggae.00089.au,jazz
rock.00000.au,metal
rock.00001.au,hiphop
rock.00002.au,hiphop
rock.00003.au,rock
rock.00004.au,jazz
rock.00005.au,metal
rock.00006.au,blues
rock.00007.au,metal
rock.00008.au,country
rock.00009.au,metal
rock.00010.au,blues
rock.00011.au,pop
rock.00012.au,classical
rock.00013.au,blues
rock.00014.au,blues
rock.00015.au,jazz
rock.00016.au,metal
rock.00017.au,country
rock.00018.au,disco
rock.00019.au,reggae
rock.00020.au,blues
rock.00021.au,rock
rock.00022.au,country
rock.00023.au,country
rock.00024.au,rock
rock.00025.au,reggae
rock.00026.au,rock
rock.00027.au,metal
rock.00028.au,disco
rock.00029.au,reggae
rock.00030.au,jazz
rock.00031.au,reggae
rock.00032.au,pop
rock.00033.au,metal
rock.00034.au,metal
rock.00035.au,reggae
rock.00036.au,country
rock.00037.au,reggae
rock.00038.au,metal
rock.00039.au,reggae
rock.00040.au,blues
rock.00041.au,country
rock.00042.au,reggae
rock.00043.au,reggae
rock.00044.au,country
rock.00045.au,classical
rock.00046.au,country
rock.00047.au,country
rock.00048.au,jazz
rock.00049.au,rock
rock.00050.au,rock
rock.00051.au,rock
rock.00052.au,rock
rock.00053.au,rock
rock.00054.au,rock
rock.00055.au,rock
rock.00056.au,rock
rock.00057.au,reggae
rock.00058.au,rock
rock.00059.au,country
rock.00060.au,metal
rock.00061.au,country
rock.00062.au,rock
rock.00063.au,jazz
rock.00064.au,classical
rock.00065.au,metal
rock.00066.au,classical
rock.00067.au,reggae
rock.00068.au,metal
rock.00069.au,classical
rock.00070.au,classical
rock.00071.au,rock
rock.00072.au,rock
rock.00073.au,rock
rock.00074.au,rock
rock.00075.au,rock
rock.00076.au,rock
rock.00077.au,rock
rock.00078.au,rock
rock.00079.au,country
rock.00080.au,country
rock.00081.au,rock
rock.00082.au,country
rock.00083.au,country
rock.00084.au,country
rock.00085.au,country
rock.00086.au,country
rock.00087.au,country
rock.00088.au,jazz
rock.00089.au,country
