id,class
blues.00009.au,classical
blues.00019.au,blues
blues.00029.au,classical
blues.00039.au,classical
blues.00049.au,metal
blues.00059.au,metal
blues.00069.au,classical
blues.00079.au,jazz
blues.00089.au,jazz
classical.00009.au,classical
classical.00019.au,classical
classical.00029.au,classical
classical.00039.au,classical
classical.00049.au,classical
classical.00059.au,classical
classical.00069.au,classical
classical.00079.au,classical
classical.00089.au,classical
country.00009.au,disco
country.00019.au,jazz
country.00029.au,jazz
country.00039.au,rock
country.00049.au,jazz
country.00059.au,rock
country.00069.au,country
country.00079.au,country
country.00089.au,country
disco.00009.au,reggae
disco.00019.au,disco
disco.00029.au,disco
disco.00039.au,country
disco.00049.au,blues
disco.00059.au,metal
disco.00069.au,jazz
disco.00079.au,disco
disco.00089.au,jazz
hiphop.00009.au,blues
hiphop.00019.au,blues
hiphop.00029.au,hiphop
hiphop.00039.au,hiphop
hiphop.00049.au,disco
hiphop.00059.au,reggae
hiphop.00069.au,disco
hiphop.00079.au,pop
hiphop.00089.au,metal
jazz.00009.au,jazz
jazz.00019.au,jazz
jazz.00029.au,classical
jazz.00039.au,jazz
jazz.00049.au,classical
jazz.00059.au,reggae
jazz.00069.au,jazz
jazz.00079.au,hiphop
jazz.00089.au,jazz
metal.00009.au,hiphop
metal.00019.au,metal
metal.00029.au,rock
metal.00039.au,blues
metal.00049.au,metal
metal.00059.au,reggae
metal.00069.au,hiphop
metal.00079.au,reggae
metal.00089.au,blues
pop.00009.au,reggae
pop.00019.au,hiphop
pop.00029.au,pop
pop.00039.au,metal
pop.00049.au,pop
pop.00059.au,pop
pop.00069.au,metal
pop.00079.au,classical
pop.00089.au,metal
reggae.00009.au,disco
reggae.00019.au,reggae
reggae.00029.au,reggae
reggae.00039.au,disco
reggae.00049.au,blues
reggae.00059.au,disco
reggae.00069.au,reggae
reggae.00079.au,blues
reggae.00089.au,jazz
rock.00009.au,metal
rock.00019.au,reggae
rock.00029.au,reggae
rock.00039.au,reggae
rock.00049.au,rock
rock.00059.au,country
rock.00069.au,classical
rock.00079.au,country
rock.00089.au,country
