id,class
blues.00004.au,classical
blues.00014.au,blues
blues.00024.au,blues
blues.00034.au,classical
blues.00044.au,metal
blues.00054.au,pop
blues.00064.au,rock
blues.00074.au,pop
blues.00084.au,metal
classical.00004.au,classical
classical.00014.au,classical
classical.00024.au,classical
classical.00034.au,classical
classical.00044.au,classical
classical.00054.au,rock
classical.00064.au,classical
classical.00074.au,classical
classical.00084.au,classical
country.00004.au,reggae
country.00014.au,disco
country.00024.au,classical
country.00034.au,rock
country.00044.au,country
country.00054.au,country
country.00064.au,country
country.00074.au,country
country.00084.au,rock
disco.00004.au,blues
disco.00014.au,disco
disco.00024.au,reggae
disco.00034.au,jazz
disco.00044.au,reggae
disco.00054.au,classical
disco.00064.au,rock
disco.00074.au,reggae
disco.00084.au,disco
hiphop.00004.au,hiphop
hiphop.00014.au,reggae
hiphop.00024.au,metal
hiphop.00034.au,blues
hiphop.00044.au,jazz
hiphop.00054.au,hiphop
hiphop.00064.au,disco
hiphop.00074.au,pop
hiphop.00084.au,blues
jazz.00004.au,country
jazz.00014.au,classical
jazz.00024.au,jazz
jazz.00034.au,jazz
jazz.00044.au,jazz
jazz.00054.au,disco
jazz.00064.au,reggae
jazz.00074.au,jazz
jazz.00084.au,jazz
metal.00004.au,metal
metal.00014.au,country
metal.00024.au,hiphop
metal.00034.au,rock
metal.00044.au,rock
metal.00054.au,metal
metal.00064.au,metal
metal.00074.au,jazz
metal.00084.au,metal
pop.00004.au,country
pop.00014.au,rock
pop.00024.au,metal
pop.00034.au,pop
pop.00044.au,reggae
pop.00054.au,pop
pop.00064.au,hiphop
pop.00074.au,metal
pop.00084.au,reggae
reggae.00004.au,metal
reggae.00014.au,hiphop
reggae.00024.au,disco
reggae.00034.au,reggae
reggae.00044.au,metal
reggae.00054.au,reggae
reggae.00064.au,hiphop
reggae.00074.au,reggae
reggae.00084.au,rock
rock.00004.au,jazz
rock.00014.au,blues
rock.00024.au,rock
rock.00034.au,metal
rock.00044.au,country
rock.00054.au,rock
rock.00064.au,classical
rock.00074.au,rock
rock.00084.au,country
