id,class
validation.00596.au,reggae
validation.02436.au,hiphop
validation.02930.au,blues
validation.03364.au,country
validation.03550.au,country
validation.04625.au,blues
validation.07561.au,hiphop
validation.07642.au,country
validation.09065.au,classical
validation.09885.au,metal
validation.12150.au,classical
validation.13350.au,classical
validation.16676.au,hiphop
validation.17817.au,hiphop
validation.18392.au,hiphop
validation.18794.au,disco
validation.18828.au,jazz
validation.19082.au,rock
validation.21589.au,blues
validation.23193.au,jazz
validation.23211.au,hiphop
validation.23301.au,metal
validation.24620.au,country
validation.25407.au,hiphop
validation.26050.au,hiphop
validation.26581.au,jazz
validation.28540.au,disco
validation.28558.au,rock
validation.29001.au,hiphop
validation.29659.au,reggae
validation.30482.au,metal
validation.30768.au,blues
validation.32510.au,metal
validation.32787.au,jazz
validation.33033.au,hiphop
validation.33529.au,reggae
validation.34800.au,rock
validation.34835.au,blues
validation.34938.au,pop
validation.36126.au,classical
validation.39797.au,jazz
validation.41870.au,metal
validation.43948.au,jazz
validation.44485.au,hiphop
validation.47303.au,classical
validation.49246.au,hiphop
validation.51339.au,metal
validation.51932.au,classical
validation.52165.au,reggae
validation.52376.au,hiphop
validation.53339.au,hiphop
validation.54199.au,metal
validation.56037.au,jazz
validation.60352.au,classical
validation.62461.au,hiphop
validation.62917.au,pop
validation.64717.au,jazz
validation.65355.au,metal
validation.66836.au,metal
validation.67898.au,jazz
validation.68246.au,metal
validation.68504.au,pop
validation.68600.au,hiphop
validation.69645.au,jazz
validation.70325.au,blues
validation.70514.au,hiphop
validation.70521.au,blues
validation.70709.au,metal
validation.71178.au,metal
validation.71558.au,hiphop
validation.72738.au,hiphop
validation.72918.au,disco
validation.73325.au,jazz
validation.73749.au,jazz
validation.76427.au,blues
validation.76541.au,hiphop
validation.77219.au,hiphop
validation.79401.au,reggae
validation.80325.au,metal
validation.80446.au,hiphop
validation.80480.au,metal
validation.81197.au,metal
validation.84038.au,jazz
validation.86647.au,hiphop
validation.87593.au,metal
validation.87812.au,blues
validation.88839.au,pop
validation.89176.au,classical
validation.89749.au,country
validation.91278.au,classical
validation.91579.au,metal
validation.93577.au,hiphop
validation.94066.au,jazz
validation.94863.au,jazz
validation.95021.au,classical
validation.95763.au,hiphop
validation.96483.au,hiphop
validation.97080.au,classical
validation.97638.au,disco
validation.97760.au,hiphop
