id,class
validation.00596.au,reggae
validation.02436.au,reggae
validation.02930.au,jazz
validation.03364.au,country
validation.03550.au,country
validation.04625.au,country
validation.07561.au,classical
validation.07642.au,classical
validation.09065.au,classical
validation.09885.au,blues
validation.12150.au,classical
validation.13350.au,classical
validation.16676.au,jazz
validation.17817.au,reggae
validation.18392.au,hiphop
validation.18794.au,rock
validation.18828.au,jazz
validation.19082.au,disco
validation.21589.au,rock
validation.23193.au,disco
validation.23211.au,jazz
validation.23301.au,disco
validation.24620.au,rock
validation.25407.au,rock
validation.26050.au,jazz
validation.26581.au,rock
validation.28540.au,jazz
validation.28558.au,rock
validation.29001.au,reggae
validation.29659.au,reggae
validation.30482.au,country
validation.30768.au,jazz
validation.32510.au,jazz
validation.32787.au,jazz
validation.33033.au,rock
validation.33529.au,reggae
validation.34800.au,rock
validation.34835.au,blues
validation.34938.au,rock
validation.36126.au,classical
validation.39797.au,classical
validation.41870.au,metal
validation.43948.au,jazz
validation.44485.au,disco
validation.47303.au,classical
validation.49246.au,pop
validation.51339.au,disco
validation.51932.au,jazz
validation.52165.au,disco
validation.52376.au,reggae
validation.53339.au,pop
validation.54199.au,rock
validation.56037.au,jazz
validation.60352.au,classical
validation.62461.au,country
validation.62917.au,classical
validation.64717.au,classical
validation.65355.au,rock
validation.66836.au,jazz
validation.67898.au,rock
validation.68246.au,classical
validation.68504.au,pop
validation.68600.au,disco
validation.69645.au,country
validation.70325.au,rock
validation.70514.au,blues
validation.70521.au,classical
validation.70709.au,metal
validation.71178.au,classical
validation.71558.au,disco
validation.72738.au,metal
validation.72918.au,jazz
validation.73325.au,classical
validation.73749.au,jazz
validation.76427.au,classical
validation.76541.au,reggae
validation.77219.au,pop
validation.79401.au,jazz
validation.80325.au,pop
validation.80446.au,reggae
validation.80480.au,disco
validation.81197.au,metal
validation.84038.au,jazz
validation.86647.au,country
validation.87593.au,metal
validation.87812.au,blues
validation.88839.au,country
validation.89176.au,jazz
validation.89749.au,classical
validation.91278.au,jazz
validation.91579.au,jazz
validation.93577.au,disco
validation.94066.au,jazz
validation.94863.au,country
validation.95021.au,classical
validation.95763.au,metal
validation.96483.au,reggae
validation.97080.au,classical
validation.97638.au,country
validation.97760.au,reggae
