id,class
validation.00596.au,reggae
validation.02436.au,reggae
validation.02930.au,disco
validation.03364.au,country
validation.03550.au,country
validation.04625.au,country
validation.07561.au,blues
validation.07642.au,classical
validation.09065.au,classical
validation.09885.au,metal
validation.12150.au,classical
validation.13350.au,classical
validation.16676.au,blues
validation.17817.au,hiphop
validation.18392.au,hiphop
validation.18794.au,rock
validation.18828.au,jazz
validation.19082.au,country
validation.21589.au,pop
validation.23193.au,classical
validation.23211.au,blues
validation.23301.au,country
validation.24620.au,country
validation.25407.au,disco
validation.26050.au,jazz
validation.26581.au,classical
validation.28540.au,jazz
validation.28558.au,rock
validation.29001.au,reggae
validation.29659.au,reggae
validation.30482.au,metal
validation.30768.au,blues
validation.32510.au,country
validation.32787.au,jazz
validation.33033.au,reggae
validation.33529.au,reggae
validation.34800.au,rock
validation.34835.au,blues
validation.34938.au,country
validation.36126.au,classical
validation.39797.au,metal
validation.41870.au,metal
validation.43948.au,jazz
validation.44485.au,country
validation.47303.au,classical
validation.49246.au,metal
validation.51339.au,metal
validation.51932.au,classical
validation.52165.au,reggae
validation.52376.au,reggae
validation.53339.au,pop
validation.54199.au,metal
validation.56037.au,jazz
validation.60352.au,classical
validation.62461.au,pop
validation.62917.au,classical
validation.64717.au,jazz
validation.65355.au,metal
validation.66836.au,jazz
validation.67898.au,pop
validation.68246.au,metal
validation.68504.au,pop
validation.68600.au,disco
validation.69645.au,jazz
validation.70325.au,country
validation.70514.au,disco
validation.70521.au,reggae
validation.70709.au,classical
validation.71178.au,rock
validation.71558.au,reggae
validation.72738.au,hiphop
validation.72918.au,disco
validation.73325.au,jazz
validation.73749.au,jazz
validation.76427.au,classical
validation.76541.au,reggae
validation.77219.au,metal
validation.79401.au,jazz
validation.80325.au,classical
validation.80446.au,hiphop
validation.80480.au,country
validation.81197.au,metal
validation.84038.au,jazz
validation.86647.au,metal
validation.87593.au,metal
validation.87812.au,blues
validation.88839.au,pop
validation.89176.au,classical
validation.89749.au,country
validation.91278.au,classical
validation.91579.au,jazz
validation.93577.au,disco
validation.94066.au,jazz
validation.94863.au,country
validation.95021.au,classical
validation.95763.au,metal
validation.96483.au,country
validation.97080.au,country
validation.97638.au,country
validation.97760.au,reggae
