id,class
validation.00596.au,reggae
validation.02436.au,blues
validation.02930.au,classical
validation.03364.au,pop
validation.03550.au,jazz
validation.04625.au,jazz
validation.07561.au,disco
validation.07642.au,classical
validation.09065.au,classical
validation.09885.au,pop
validation.12150.au,hiphop
validation.13350.au,blues
validation.16676.au,disco
validation.17817.au,disco
validation.18392.au,country
validation.18794.au,blues
validation.18828.au,reggae
validation.19082.au,pop
validation.21589.au,blues
validation.23193.au,classical
validation.23211.au,country
validation.23301.au,metal
validation.24620.au,country
validation.25407.au,rock
validation.26050.au,disco
validation.26581.au,disco
validation.28540.au,metal
validation.28558.au,metal
validation.29001.au,jazz
validation.29659.au,hiphop
validation.30482.au,pop
validation.30768.au,blues
validation.32510.au,rock
validation.32787.au,jazz
validation.33033.au,metal
validation.33529.au,pop
validation.34800.au,country
validation.34835.au,disco
validation.34938.au,pop
validation.36126.au,classical
validation.39797.au,pop
validation.41870.au,metal
validation.43948.au,pop
validation.44485.au,jazz
validation.47303.au,classical
validation.49246.au,hiphop
validation.51339.au,blues
validation.51932.au,classical
validation.52165.au,metal
validation.52376.au,hiphop
validation.53339.au,country
validation.54199.au,hiphop
validation.56037.au,country
validation.60352.au,classical
validation.62461.au,jazz
validation.62917.au,hiphop
validation.64717.au,country
validation.65355.au,disco
validation.66836.au,metal
validation.67898.au,rock
validation.68246.au,disco
validation.68504.au,metal
validation.68600.au,jazz
validation.69645.au,metal
validation.70325.au,rock
validation.70514.au,metal
validation.70521.au,country
validation.70709.au,metal
validation.71178.au,country
validation.71558.au,hiphop
validation.72738.au,country
validation.72918.au,rock
validation.73325.au,classical
validation.73749.au,disco
validation.76427.au,metal
validation.76541.au,reggae
validation.77219.au,hiphop
validation.79401.au,blues
validation.80325.au,jazz
validation.80446.au,country
validation.80480.au,metal
validation.81197.au,country
validation.84038.au,blues
validation.86647.au,rock
validation.87593.au,disco
validation.87812.au,rock
validation.88839.au,rock
validation.89176.au,rock
validation.89749.au,jazz
validation.91278.au,country
validation.91579.au,hiphop
validation.93577.au,jazz
validation.94066.au,metal
validation.94863.au,pop
validation.95021.au,classical
validation.95763.au,jazz
validation.96483.au,blues
validation.97080.au,classical
validation.97638.au,rock
validation.97760.au,blues
