id,class
validation.00596.au,jazz
validation.02436.au,blues
validation.02930.au,classical
validation.03364.au,metal
validation.03550.au,metal
validation.04625.au,jazz
validation.07561.au,jazz
validation.07642.au,classical
validation.09065.au,classical
validation.09885.au,metal
validation.12150.au,jazz
validation.13350.au,classical
validation.16676.au,metal
validation.17817.au,metal
validation.18392.au,reggae
validation.18794.au,blues
validation.18828.au,jazz
validation.19082.au,country
validation.21589.au,country
validation.23193.au,classical
validation.23211.au,metal
validation.23301.au,country
validation.24620.au,rock
validation.25407.au,pop
validation.26050.au,rock
validation.26581.au,metal
validation.28540.au,jazz
validation.28558.au,metal
validation.29001.au,metal
validation.29659.au,metal
validation.30482.au,metal
validation.30768.au,metal
validation.32510.au,country
validation.32787.au,jazz
validation.33033.au,metal
validation.33529.au,metal
validation.34800.au,country
validation.34835.au,metal
validation.34938.au,reggae
validation.36126.au,classical
validation.39797.au,country
validation.41870.au,jazz
validation.43948.au,jazz
validation.44485.au,rock
validation.47303.au,classical
validation.49246.au,rock
validation.51339.au,rock
validation.51932.au,classical
validation.52165.au,metal
validation.52376.au,country
validation.53339.au,hiphop
validation.54199.au,pop
validation.56037.au,jazz
validation.60352.au,classical
validation.62461.au,hiphop
validation.62917.au,metal
validation.64717.au,jazz
validation.65355.au,rock
validation.66836.au,rock
validation.67898.au,hiphop
validation.68246.au,rock
validation.68504.au,metal
validation.68600.au,metal
validation.69645.au,metal
validation.70325.au,hiphop
validation.70514.au,rock
validation.70521.au,rock
validation.70709.au,rock
validation.71178.au,jazz
validation.71558.au,metal
validation.72738.au,reggae
validation.72918.au,rock
validation.73325.au,jazz
validation.73749.au,rock
validation.76427.au,jazz
validation.76541.au,disco
validation.77219.au,metal
validation.79401.au,metal
validation.80325.au,country
validation.80446.au,metal
validation.80480.au,country
validation.81197.au,jazz
validation.84038.au,classical
validation.86647.au,metal
validation.87593.au,metal
validation.87812.au,metal
validation.88839.au,hiphop
validation.89176.au,jazz
validation.89749.au,metal
validation.91278.au,classical
validation.91579.au,rock
validation.93577.au,blues
validation.94066.au,jazz
validation.94863.au,rock
validation.95021.au,classical
validation.95763.au,metal
validation.96483.au,country
validation.97080.au,classical
validation.97638.au,classical
validation.97760.au,metal
