id,class
blues.00008.au,rock
blues.00018.au,blues
blues.00028.au,rock
blues.00038.au,blues
blues.00048.au,disco
blues.00058.au,country
blues.00068.au,blues
blues.00078.au,disco
blues.00088.au,pop
classical.00008.au,jazz
classical.00018.au,classical
classical.00028.au,country
classical.00038.au,classical
classical.00048.au,jazz
classical.00058.au,classical
classical.00068.au,classical
classical.00078.au,classical
classical.00088.au,classical
country.00008.au,metal
country.00018.au,blues
country.00028.au,country
country.00038.au,reggae
country.00048.au,jazz
country.00058.au,metal
country.00068.au,rock
country.00078.au,classical
country.00088.au,hiphop
disco.00008.au,metal
disco.00018.au,hiphop
disco.00028.au,rock
disco.00038.au,rock
disco.00048.au,country
disco.00058.au,metal
disco.00068.au,jazz
disco.00078.au,pop
disco.00088.au,hiphop
hiphop.00008.au,rock
hiphop.00018.au,reggae
hiphop.00028.au,metal
hiphop.00038.au,disco
hiphop.00048.au,metal
hiphop.00058.au,country
hiphop.00068.au,disco
hiphop.00078.au,hiphop
hiphop.00088.au,hiphop
jazz.00008.au,hiphop
jazz.00018.au,jazz
jazz.00028.au,reggae
jazz.00038.au,jazz
jazz.00048.au,jazz
jazz.00058.au,jazz
jazz.00068.au,jazz
jazz.00078.au,reggae
jazz.00088.au,country
metal.00008.au,blues
metal.00018.au,rock
metal.00028.au,hiphop
metal.00038.au,country
metal.00048.au,hiphop
metal.00058.au,rock
metal.00068.au,hiphop
metal.00078.au,metal
metal.00088.au,rock
pop.00008.au,metal
pop.00018.au,metal
pop.00028.au,hiphop
pop.00038.au,rock
pop.00048.au,blues
pop.00058.au,rock
pop.00068.au,jazz
pop.00078.au,disco
pop.00088.au,reggae
reggae.00008.au,jazz
reggae.00018.au,reggae
reggae.00028.au,hiphop
reggae.00038.au,jazz
reggae.00048.au,metal
reggae.00058.au,blues
reggae.00068.au,blues
reggae.00078.au,rock
reggae.00088.au,jazz
rock.00008.au,metal
rock.00018.au,metal
rock.00028.au,country
rock.00038.au,country
rock.00048.au,rock
rock.00058.au,rock
rock.00068.au,rock
rock.00078.au,rock
rock.00088.au,jazz
