id,class
blues.00004.au,classical
blues.00014.au,jazz
blues.00024.au,jazz
blues.00034.au,jazz
blues.00044.au,metal
blues.00054.au,metal
blues.00064.au,country
blues.00074.au,metal
blues.00084.au,metal
classical.00004.au,classical
classical.00014.au,classical
classical.00024.au,jazz
classical.00034.au,classical
classical.00044.au,classical
classical.00054.au,rock
classical.00064.au,classical
classical.00074.au,classical
classical.00084.au,classical
country.00004.au,metal
country.00014.au,country
country.00024.au,jazz
country.00034.au,jazz
country.00044.au,rock
country.00054.au,rock
country.00064.au,jazz
country.00074.au,jazz
country.00084.au,rock
disco.00004.au,country
disco.00014.au,metal
disco.00024.au,country
disco.00034.au,rock
disco.00044.au,country
disco.00054.au,jazz
disco.00064.au,rock
disco.00074.au,rock
disco.00084.au,jazz
hiphop.00004.au,pop
hiphop.00014.au,disco
hiphop.00024.au,disco
hiphop.00034.au,metal
hiphop.00044.au,classical
hiphop.00054.au,metal
hiphop.00064.au,pop
hiphop.00074.au,metal
hiphop.00084.au,jazz
jazz.00004.au,jazz
jazz.00014.au,classical
jazz.00024.au,jazz
jazz.00034.au,country
jazz.00044.au,jazz
jazz.00054.au,rock
jazz.00064.au,metal
jazz.00074.au,jazz
jazz.00084.au,jazz
metal.00004.au,metal
metal.00014.au,country
metal.00024.au,metal
metal.00034.au,blues
metal.00044.au,rock
metal.00054.au,metal
metal.00064.au,country
metal.00074.au,jazz
metal.00084.au,metal
pop.00004.au,metal
pop.00014.au,rock
pop.00024.au,hiphop
pop.00034.au,pop
pop.00044.au,hiphop
pop.00054.au,pop
pop.00064.au,classical
pop.00074.au,pop
pop.00084.au,reggae
reggae.00004.au,reggae
reggae.00014.au,reggae
reggae.00024.au,country
reggae.00034.au,country
reggae.00044.au,hiphop
reggae.00054.au,reggae
reggae.00064.au,metal
reggae.00074.au,metal
reggae.00084.au,country
rock.00004.au,metal
rock.00014.au,jazz
rock.00024.au,rock
rock.00034.au,metal
rock.00044.au,metal
rock.00054.au,jazz
rock.00064.au,jazz
rock.00074.au,metal
rock.00084.au,rock
