id,class
blues.00007.au,jazz
blues.00017.au,country
blues.00027.au,jazz
blues.00037.au,classical
blues.00047.au,country
blues.00057.au,metal
blues.00067.au,country
blues.00077.au,metal
blues.00087.au,country
classical.00007.au,classical
classical.00017.au,classical
classical.00027.au,classical
classical.00037.au,classical
classical.00047.au,classical
classical.00057.au,classical
classical.00067.au,classical
classical.00077.au,classical
classical.00087.au,classical
country.00007.au,metal
country.00017.au,country
country.00027.au,country
country.00037.au,jazz
country.00047.au,jazz
country.00057.au,country
country.00067.au,jazz
country.00077.au,country
country.00087.au,blues
disco.00007.au,metal
disco.00017.au,country
disco.00027.au,hiphop
disco.00037.au,metal
disco.00047.au,classical
disco.00057.au,jazz
disco.00067.au,country
disco.00077.au,metal
disco.00087.au,rock
hiphop.00007.au,hiphop
hiphop.00017.au,metal
hiphop.00027.au,country
hiphop.00037.au,reggae
hiphop.00047.au,pop
hiphop.00057.au,metal
hiphop.00067.au,pop
hiphop.00077.au,metal
hiphop.00087.au,rock
jazz.00007.au,jazz
jazz.00017.au,jazz
jazz.00027.au,jazz
jazz.00037.au,country
jazz.00047.au,jazz
jazz.00057.au,jazz
jazz.00067.au,jazz
jazz.00077.au,country
jazz.00087.au,jazz
metal.00007.au,country
metal.00017.au,metal
metal.00027.au,metal
metal.00037.au,metal
metal.00047.au,metal
metal.00057.au,metal
metal.00067.au,metal
metal.00077.au,metal
metal.00087.au,hiphop
pop.00007.au,jazz
pop.00017.au,metal
pop.00027.au,metal
pop.00037.au,metal
pop.00047.au,hiphop
pop.00057.au,pop
pop.00067.au,pop
pop.00077.au,hiphop
pop.00087.au,metal
reggae.00007.au,blues
reggae.00017.au,pop
reggae.00027.au,blues
reggae.00037.au,reggae
reggae.00047.au,jazz
reggae.00057.au,country
reggae.00067.au,metal
reggae.00077.au,metal
reggae.00087.au,reggae
rock.00007.au,metal
rock.00017.au,metal
rock.00027.au,country
rock.00037.au,rock
rock.00047.au,rock
rock.00057.au,metal
rock.00067.au,country
rock.00077.au,metal
rock.00087.au,metal
